%YAML 1.1
%TAG !u! tag:unity3d.com,2011:
--- !u!1001 &6126154159988791730
PrefabInstance:
  m_ObjectHideFlags: 0
  serializedVersion: 2
  m_Modification:
    m_TransformParent: {fileID: 0}
    m_Modifications:
    - target: {fileID: -8679921383154817045, guid: 6fac0a9b719d7434ab13eb96d8dd47b6,
        type: 3}
      propertyPath: m_RootOrder
      value: 0
      objectReference: {fileID: 0}
    - target: {fileID: -8679921383154817045, guid: 6fac0a9b719d7434ab13eb96d8dd47b6,
        type: 3}
      propertyPath: m_LocalPosition.x
      value: 0.025
      objectReference: {fileID: 0}
    - target: {fileID: -8679921383154817045, guid: 6fac0a9b719d7434ab13eb96d8dd47b6,
        type: 3}
      propertyPath: m_LocalPosition.y
      value: 1.3551998
      objectReference: {fileID: 0}
    - target: {fileID: -8679921383154817045, guid: 6fac0a9b719d7434ab13eb96d8dd47b6,
        type: 3}
      propertyPath: m_LocalPosition.z
      value: 0.218
      objectReference: {fileID: 0}
    - target: {fileID: -8679921383154817045, guid: 6fac0a9b719d7434ab13eb96d8dd47b6,
        type: 3}
      propertyPath: m_LocalRotation.w
      value: 1
      objectReference: {fileID: 0}
    - target: {fileID: -8679921383154817045, guid: 6fac0a9b719d7434ab13eb96d8dd47b6,
        type: 3}
      propertyPath: m_LocalRotation.x
      value: 0
      objectReference: {fileID: 0}
    - target: {fileID: -8679921383154817045, guid: 6fac0a9b719d7434ab13eb96d8dd47b6,
        type: 3}
      propertyPath: m_LocalRotation.y
      value: -0
      objectReference: {fileID: 0}
    - target: {fileID: -8679921383154817045, guid: 6fac0a9b719d7434ab13eb96d8dd47b6,
        type: 3}
      propertyPath: m_LocalRotation.z
      value: -0
      objectReference: {fileID: 0}
    - target: {fileID: -8679921383154817045, guid: 6fac0a9b719d7434ab13eb96d8dd47b6,
        type: 3}
      propertyPath: m_LocalEulerAnglesHint.x
      value: 0
      objectReference: {fileID: 0}
    - target: {fileID: -8679921383154817045, guid: 6fac0a9b719d7434ab13eb96d8dd47b6,
        type: 3}
      propertyPath: m_LocalEulerAnglesHint.y
      value: 0
      objectReference: {fileID: 0}
    - target: {fileID: -8679921383154817045, guid: 6fac0a9b719d7434ab13eb96d8dd47b6,
        type: 3}
      propertyPath: m_LocalEulerAnglesHint.z
      value: 0
      objectReference: {fileID: 0}
    - target: {fileID: -2331220198936604240, guid: 6fac0a9b719d7434ab13eb96d8dd47b6,
        type: 3}
      propertyPath: m_Materials.Array.data[0]
      value: 
      objectReference: {fileID: 2100000, guid: 72565f120e420dc44a20dc27fc379d58, type: 2}
    - target: {fileID: 919132149155446097, guid: 6fac0a9b719d7434ab13eb96d8dd47b6,
        type: 3}
      propertyPath: m_Name
      value: JadeToad
      objectReference: {fileID: 0}
    - target: {fileID: 2021648857619961549, guid: 6fac0a9b719d7434ab13eb96d8dd47b6,
        type: 3}
      propertyPath: m_LocalPosition.x
      value: 0
      objectReference: {fileID: 0}
    - target: {fileID: 2021648857619961549, guid: 6fac0a9b719d7434ab13eb96d8dd47b6,
        type: 3}
      propertyPath: m_LocalPosition.y
      value: 0
      objectReference: {fileID: 0}
    m_RemovedComponents: []
  m_SourcePrefab: {fileID: 100100000, guid: 6fac0a9b719d7434ab13eb96d8dd47b6, type: 3}
